{
    "status": 1,
    "message": "Data has been successfully retrieved",
    "data": {
        "advertisementList": [{
                "organizationNameNp": null,
                "lastDateForSubmissionAd": "2021-08-21",
                "organizationNameEn": null,
                "className": "रा.प.अनं. चतुर्थ श्रेणी",
                "totalVacancy": "15",
                "subGroupName": "संगीत विद्यालय",
                "organizationId": null,
                "lastDateForSubmissionBs": "2078-05-05",
                "groupName": "प्राविधिक",
                "post": "प्राविधिक प्रहरी जवान (संगीत विद्यालय)",
                "service": "नेपाल प्रहरी",
                "advertisementCode": "afadgd",
                "id": 87
            },
            {
                "organizationNameNp": null,
                "lastDateForSubmissionAd": "2021-08-31",
                "organizationNameEn": null,
                "className": "रा.प.तृतीय श्रेणी",
                "totalVacancy": "1",
                "subGroupName": "मेकानिकल ईन्जिनियरिङ्ग तथा सवारी",
                "organizationId": null,
                "lastDateForSubmissionBs": "2078-05-15",
                "groupName": "प्राविधिक",
                "post": "प्रहरी निरीक्षक(जनपद)",
                "service": "नेपाल प्रहरी",
                "advertisementCode": "test-08",
                "id": 85
            },
            {
                "organizationNameNp": null,
                "lastDateForSubmissionAd": "2021-08-19",
                "organizationNameEn": null,
                "className": "रा.प.तृतीय श्रेणी",
                "totalVacancy": "1",
                "subGroupName": "मेकानिकल ईन्जिनियरिङ्ग तथा सवारी",
                "organizationId": null,
                "lastDateForSubmissionBs": "2078-05-03",
                "groupName": "प्राविधिक",
                "post": "प्रहरी निरीक्षक(जनपद)",
                "service": "नेपाल प्रहरी",
                "advertisementCode": "test-07",
                "id": 83
            }
        ],
        "statistics": [
            ["Total Vacancy", 22, 2],
            ["Total Live Advertisement", 8, 1],
            ["Total Applied", 0, 3]
        ]
    }
}