{
    "status": 1,
    "message": "Data has been successfully retrieved",
    "data": {
        "statistics": [
            ["Total Vacancy", 0, 2],
            ["Total Live Advertisement", 0, 1],
            ["Total Applied", 0, 3]
        ]
    }
}