{
    "reporterEnabled": "mochawesome",
    "reporter": "mochawesome",
    "reporterOptions": {
        "reportDir": "cypress/results/mochawesome",
        "overwrite": false,
        "html": false,
        "json": true
    }
}